{
    "MAILGUN_USER": "postmaster@sandbox9ee2cb0d17d4495db97e9a667ff34bee.mailgun.org",
    "MAILGUN_PASSWORD": "29fe67450d50702619bfa050e18a95b5",
    "TEST_USER_EMAIL": "konrad.olechowski500@gmail.com"
}